…
``` r
set.seed(1000)
sample_df = function(mu){
  rerun(5000,map(.x = mu, ~nd_ttest(.x))) %>% 
  bind_rows()
}

sample_df(0)
```

    ## # A tibble: 5,000 x 2
    ##    estimate p.value
    ##       <dbl>   <dbl>
    ##  1   -0.758   0.402
    ##  2   -0.593   0.520
    ##  3    1.02    0.267
    ##  4    0.991   0.306
    ##  5    0.183   0.816
    ##  6   -0.101   0.905
    ##  7    1.10    0.166
    ##  8   -1.53    0.129
    ##  9    1.06    0.198
    ## 10   -0.408   0.651
    ## # … with 4,990 more rows
…
